Untitled
…
fluidmilk_data <- fluidmilk_data %>%
  mutate(Year = as.numeric(Year)) %>%
  filter(!is.na(Year))

## Warning: There was 1 warning in `mutate()`.
## ℹ In argument: `Year = as.numeric(Year)`.
## Caused by warning:
## ! NAs introduced by coercion

fluidmilk_data <- fluidmilk_data %>%
  mutate(across(Whole_Milk:Total_Sales, as.numeric))

print(fluidmilk_data)

## # A tibble: 49 × 10
##     Year Whole_Milk `Reduced_Fat_2_%` `Low_Fat_1_%`  Skim Flavored_Whole
##    <dbl>      <dbl>             <dbl>         <dbl> <dbl>          <dbl>
##  1  1975      36188              8726          2742  2480           1366
##  2  1976      35241              9556          2875  2524           1475
##  3  1977      34036             10423          3003  2617           1446
##  4  1978      33235             11017          3233  2543           1359
##  5  1979      32480             11762          3281  2604           1236
##  6  1980      31253             12435          3483  2636           1075
##  7  1981      30397             13088          3574  2583            843
##  8  1982      29350             13501          3537  2449            710
##  9  1983      28871             14183          3455  2474            749
## 10  1984      28204             15143          3382  2726            907
## # ℹ 39 more rows
## # ℹ 4 more variables: Flavored_Other <dbl>, Buttermilk <dbl>, Eggnog <dbl>,
## #   Total_Sales <dbl>
…
